<?xml version="1.0" encoding="utf-8"?>
<!-- Generator: Adobe Illustrator 23.0.4, SVG Export Plug-In . SVG Version: 6.00 Build 0)  -->
<svg version="1.1" id="Layer_1" xmlns="http://www.w3.org/2000/svg" xmlns:xlink="http://www.w3.org/1999/xlink" x="0px" y="0px"
	 viewBox="0 0 32 32" style="enable-background:new 0 0 32 32;" xml:space="preserve">
<style type="text/css">
	.st0{fill:none;stroke:#FFFFFF;stroke-linecap:round;stroke-linejoin:round;stroke-miterlimit:10;}
	.st1{fill:none;stroke:#FFFFFF;stroke-width:3;stroke-linecap:round;stroke-linejoin:round;stroke-miterlimit:10;}
</style>
<path class="st0" d="M21.5,28H10.6c-1.1,0-2-0.9-2-2V6.4c0-1.1,0.9-2,2-2h10.9c1.1,0,2,0.9,2,2V26C23.5,27.1,22.6,28,21.5,28z"/>
<circle class="st0" cx="16" cy="25.2" r="1"/>
<path class="st0" d="M13.5,13.8l1.9,2l5.1-5.2h-7.3c-0.9,0-1.6,0.7-1.6,1.6v4.4c0,0.9,0.7,1.6,1.6,1.6h5.7c0.9,0,1.6-0.7,1.6-1.6
	v-3.8"/>
<line class="st0" x1="13.8" y1="6.3" x2="18.3" y2="6.3"/>
</svg>
